{
  "version": "15.0.4",
  "vulnerabilities": [
    {
      "id": "2a2e0c62b0264df0547f7bb0ce3335011ec271a5b462ea58e915dc77341296d5",
      "category": "secret_detection",
      "name": "Discord client secret",
      "description": "Discord client secret secret has been found in commit e35b8385.",
      "cve": "discord.go:2da1d23be3c2ff5fa006af339ae36bfe6ec61ab7ff8cc937101833e754f645c3:discord-client-secret",
      "severity": "Critical",
      "confidence": "Unknown",
      "raw_source_code_extract": "8dyfuiRyq=vVc3RRr_edRk-fK__JItpZ",
      "scanner": {
        "id": "gitleaks",
        "name": "Gitleaks"
      },
      "location": {
        "file": "discord.go",
        "commit": {
          "author": "Zach Rice",
          "date": "2021-12-03 15:30:55 -0600 CST",
          "message": "adding discord secret",
          "sha": "e35b8385187f72c09431bbb18c197b057f4edafb"
        },
        "start_line": 4,
        "end_line": 4
      },
      "identifiers": [
        {
          "type": "gitleaks_rule_id",
          "name": "Gitleaks rule ID discord-client-secret",
          "value": "discord-client-secret"
        }
      ]
    },
    {
      "id": "c57b0525d5614f6ad52bfdea3bb8036e41462029434f2dfefacb315c29e9da3d",
      "category": "secret_detection",
      "name": "AWS Access Key",
      "description": "AWS Access Key secret has been found in commit 6f2f3286.",
      "cve": "main.go:a833f87ec2d3eac383f36705e94cb9e080ef98a3c7f199f85ffd9290cf964716:aws-access-token",
      "severity": "Critical",
      "confidence": "Unknown",
      "raw_source_code_extract": "AKIALALEMEL33243OLIA",
      "scanner": {
        "id": "gitleaks",
        "name": "Gitleaks"
      },
      "location": {
        "file": "main.go",
        "commit": {
          "author": "Zach Rice",
          "date": "2021-12-03 15:28:34 -0600 CST",
          "message": "init with secret, opps",
          "sha": "6f2f3286e0688080de0a7782cc4781646cc5102a"
        },
        "start_line": 22,
        "end_line": 22
      },
      "identifiers": [
        {
          "type": "gitleaks_rule_id",
          "name": "Gitleaks rule ID aws-access-token",
          "value": "aws-access-token"
        }
      ]
    }
  ],
  "dependency_files": [],
  "scan": {
    "analyzer": {
      "id": "",
      "name": "",
      "vendor": {
        "name": ""
      },
      "version": ""
    },
    "scanner": {
      "id": "",
      "name": "",
      "vendor": {
        "name": ""
      },
      "version": ""
    },
    "type": ""
  }
}
